<svg width="17" height="17" viewBox="0 0 17 17" fill="none" xmlns="http://www.w3.org/2000/svg">
<path d="M1.1143 0H6.68777C6.99689 0.0501367 7.29572 0.19457 7.49693 0.438613C7.69018 0.665059 7.7951 0.962559 7.79178 1.25973C7.79145 2.3126 7.79178 3.36547 7.79178 4.41834C7.79244 4.69094 7.70213 4.9632 7.53545 5.17902C7.30469 5.48549 6.9265 5.67043 6.54334 5.66678C4.89348 5.66645 3.24361 5.66678 1.59375 5.66678C1.31684 5.66678 1.02797 5.68902 0.768652 5.57215C0.351289 5.40813 0.0620898 5.00205 0 4.56311V1.11463C0.042832 0.835391 0.159375 0.562793 0.364238 0.364238C0.563125 0.159375 0.835391 0.042832 1.1143 0Z" fill="white"/>
<path d="M10.312 0H15.8851C16.1796 0.0448242 16.4668 0.172988 16.6684 0.397109C16.854 0.592676 16.9579 0.850996 16.9997 1.1143V8.81277C16.9386 9.23412 16.6727 9.62758 16.2786 9.80189C16.0289 9.9264 15.7443 9.92242 15.4724 9.91678C13.8003 9.91644 12.1285 9.91644 10.4567 9.91678C10.307 9.91611 10.1572 9.89121 10.0171 9.83808C9.54929 9.67041 9.21228 9.19859 9.20862 8.70088C9.20696 6.2206 9.20896 3.74 9.20763 1.25973C9.20331 0.938652 9.32716 0.617578 9.55029 0.386152C9.74851 0.171328 10.0267 0.0481445 10.312 0Z" fill="white"/>
<path d="M0.33668 7.47545C0.570762 7.22211 0.915078 7.07834 1.25973 7.08299C3.00953 7.08332 4.75934 7.08399 6.50914 7.08266C7.06695 7.05776 7.60617 7.45287 7.74629 7.99375C7.80738 8.20127 7.79012 8.41942 7.79178 8.63291C7.79178 11.002 7.79144 13.3713 7.79178 15.7404C7.79676 16.0927 7.64568 16.4443 7.38238 16.6794C7.19146 16.857 6.94211 16.9556 6.6881 17.0001H1.11463C0.843359 16.9579 0.577734 16.8474 0.38084 16.6521C0.16668 16.4519 0.0434961 16.1727 0 15.8858V8.18733C0.0448242 7.92535 0.149746 7.66869 0.33668 7.47545Z" fill="white"/>
<path d="M10.0926 11.3861C10.3075 11.3164 10.5356 11.3343 10.7577 11.333C12.3737 11.3326 13.9894 11.334 15.6053 11.3323C15.8258 11.3257 16.0523 11.3433 16.2555 11.4369C16.6612 11.6069 16.9381 12.0067 16.9999 12.4366V15.8851C16.9577 16.1488 16.8538 16.4067 16.6682 16.6023C16.4666 16.8258 16.1794 16.9543 15.8856 16.9998H10.3124C10.0896 16.9589 9.86917 16.8822 9.69021 16.7394C9.39304 16.5133 9.21076 16.1464 9.20843 15.7729C9.20744 14.8097 9.20876 13.8461 9.2081 12.8826C9.20943 12.6604 9.19183 12.432 9.26122 12.2172C9.37578 11.824 9.69984 11.5013 10.0926 11.3861Z" fill="white"/>
</svg>
