<svg width="20" height="23" viewBox="0 0 20 23" fill="none" xmlns="http://www.w3.org/2000/svg">
<path d="M9.27763 0H9.63296C10.5004 0.0399805 11.3674 0.246621 12.1248 0.680117C13.1993 1.2951 14.0874 2.25463 14.5694 3.39879C15.0119 4.45715 15.0887 5.65342 14.856 6.77152C14.5582 8.17982 13.6395 9.41113 12.45 10.2013C11.5264 10.8176 10.4052 11.1069 9.29919 11.071C8.25341 11.0566 7.21033 10.7359 6.35097 10.1357C5.27419 9.38732 4.42697 8.2773 4.09769 6.99838C3.78728 5.81334 3.86005 4.52139 4.33218 3.38801C4.81419 2.25598 5.69062 1.30498 6.75302 0.690449C7.51894 0.248867 8.39806 0.0363867 9.27763 0Z" fill="#5590F5"/>
<path d="M2.69339 11.7681C3.40001 11.3221 4.2405 11.1006 5.0747 11.1168C5.26517 11.1199 5.44576 11.1913 5.61017 11.2834C6.14788 11.5889 6.64337 11.9662 7.18783 12.2609C7.97081 12.6311 8.82568 12.8961 9.70076 12.8665C10.4793 12.8606 11.229 12.6082 11.932 12.2937C12.3988 12.0574 12.8192 11.7416 13.2644 11.4689C13.5241 11.3131 13.7891 11.1248 14.104 11.1168C15.1314 11.0943 16.1727 11.4375 16.9556 12.1095C17.4489 12.5426 17.8415 13.0848 18.1308 13.6724C18.5019 14.3727 18.7318 15.1391 18.8882 15.914C19.124 17.0316 19.2085 18.178 19.1775 19.319C19.1541 19.7984 19.0607 20.2772 18.8778 20.7224C18.5948 21.4241 18.0706 22.0202 17.4246 22.4115C16.7849 22.8032 16.0352 22.9716 15.2917 22.9999H3.84204C2.94585 22.9582 2.03439 22.6949 1.3381 22.1105C0.69392 21.5907 0.252338 20.8347 0.0973573 20.023C-0.0284239 19.43 -0.00461544 18.8204 0.0182947 18.2189C0.0407557 17.6691 0.08433 17.1188 0.177768 16.5761C0.336342 15.5762 0.57892 14.5744 1.05419 13.6737C1.42974 12.9172 1.97015 12.2191 2.69339 11.7681Z" fill="#5590F5"/>
</svg>
