<svg width="28" height="28" viewBox="0 0 28 28" fill="none" xmlns="http://www.w3.org/2000/svg">
<path d="M12.6151 0.0598388C15.8258 -0.238162 19.1238 0.582773 21.7958 2.39084C24.4348 4.14589 26.4234 6.83506 27.3676 9.85519C28.3748 13.053 28.1584 16.6132 26.7816 19.6692C25.6526 22.2179 23.7443 24.4128 21.3717 25.8799C18.6453 27.5877 15.3157 28.3183 12.1265 27.8713C8.48463 27.3928 5.08341 25.3999 2.85414 22.4858C0.983036 20.0073 -0.110112 16.8912 0.00880179 13.7736C-0.0341791 11.4842 0.663544 9.23483 1.73377 7.23049C3.89714 3.24902 8.1107 0.499677 12.6151 0.0598388ZM12.4876 2.26619C10.4761 2.53697 8.53764 3.32495 6.9058 4.53272C3.19225 7.23765 1.34264 12.2578 2.47304 16.7207C3.11059 19.3869 4.69658 21.8196 6.90007 23.4543C8.92877 24.9744 11.4589 25.8527 14.0005 25.8083C16.7828 25.8541 19.5408 24.7896 21.6525 22.993C23.6841 21.2738 25.1053 18.8511 25.6082 16.2378C26.0294 14.0802 25.8217 11.808 25.028 9.76063C24.177 7.53708 22.6325 5.58718 20.664 4.24618C18.2986 2.6301 15.3344 1.88653 12.4876 2.26619Z" fill="white"/>
<path d="M10.459 8.04982C10.81 7.89365 11.1481 8.14867 11.4504 8.30054C14.2986 9.92522 17.1296 11.58 19.9349 13.2777C20.1655 13.4468 20.5237 13.5815 20.518 13.9196C20.6125 14.3551 20.1698 14.5743 19.869 14.7677C17.0895 16.4469 14.2814 18.0816 11.4533 19.679C11.1453 19.8294 10.8043 20.106 10.4475 19.9355C10.0192 19.7206 10.1023 19.1804 10.0765 18.7836C10.0507 15.5858 10.0507 12.388 10.0765 9.19024C10.0965 8.79052 10.0321 8.26472 10.459 8.04982Z" fill="white"/>
</svg>
