<svg width="11" height="25" viewBox="0 0 11 25" fill="none" xmlns="http://www.w3.org/2000/svg">
<path d="M7.52472 0H8.0524C8.64289 0.0345625 9.23289 0.203968 9.71725 0.551054C10.3116 0.965317 10.7882 1.5816 10.9372 2.30011C11.0881 3.0196 10.9746 3.81016 10.5531 4.42157C10.1169 5.06317 9.44124 5.54705 8.68183 5.72035C7.77931 5.92723 6.77651 5.77292 6.02295 5.21846C5.43977 4.80468 4.98072 4.18937 4.84198 3.47913C4.7417 2.92029 4.77578 2.32348 5.01479 1.80261C5.3244 1.11866 5.90807 0.573933 6.58861 0.266764C6.88507 0.129488 7.20927 0.0749667 7.52472 0Z" fill="#5590F5"/>
<path d="M4.08617 8.5084C4.6932 8.41104 5.31436 8.4125 5.92285 8.49429C6.67155 8.597 7.42024 8.87253 7.97616 9.39924C8.44349 9.82616 8.76526 10.4059 8.87722 11.029C8.9921 11.5504 8.9113 12.0839 8.88306 12.6092C8.83244 13.3598 8.63577 14.0895 8.42645 14.809C8.07644 16.0489 7.72643 17.2888 7.37691 18.5291C7.24451 18.9823 7.13595 19.4419 7.04979 19.9058C6.94123 20.4977 6.83024 21.1106 6.95778 21.7084C7.01717 22.0014 7.16856 22.2979 7.44068 22.4439C7.82623 22.6547 8.27846 22.6839 8.70928 22.6868C9.383 22.6834 10.0319 22.4707 10.6604 22.2477C10.5606 22.7214 10.4437 23.1916 10.3181 23.6595C9.47257 23.99 8.62701 24.322 7.76732 24.615C7.16954 24.8219 6.53573 24.8838 5.90874 24.9242H5.37618C4.52039 24.8726 3.63637 24.6949 2.93295 24.1769C2.22904 23.6721 1.74224 22.8674 1.67069 21.9995C1.60302 21.022 1.78119 20.0484 2.01534 19.1035C2.32397 18.017 2.62919 16.929 2.93733 15.842C3.10235 15.2423 3.28928 14.6484 3.41877 14.0399C3.53317 13.5526 3.66412 13.0658 3.68797 12.5634C3.71328 12.1087 3.71572 11.6205 3.48595 11.2121C3.31362 10.9034 2.95583 10.7725 2.62578 10.717C2.12681 10.6396 1.61081 10.6503 1.12012 10.7715C0.737497 10.8533 0.379701 11.0174 0 11.1079C0.100767 10.6357 0.225387 10.1684 0.344165 9.70057C0.775954 9.52824 1.21066 9.36224 1.64586 9.19722C2.44713 8.92899 3.24255 8.6155 4.08617 8.5084Z" fill="#5590F5"/>
</svg>
