<svg width="28" height="22" viewBox="0 0 28 22" fill="none" xmlns="http://www.w3.org/2000/svg">
<path d="M0.517344 1.06429C1.01172 0.388904 1.84242 -0.0179706 2.67914 0.00117003C10.0805 7.62771e-05 17.4814 0.00116991 24.8828 0.000623035C25.2279 0.00226366 25.5773 -0.0146893 25.9175 0.0580451C26.67 0.214451 27.3399 0.719764 27.6943 1.40117C27.8452 1.67461 27.9141 1.98086 28 2.27781V18.7223C27.9147 19.0198 27.8452 19.3261 27.6943 19.6001C27.3607 20.2405 26.7498 20.7255 26.0526 20.9104C25.6539 21.0225 25.2366 20.999 24.8281 21.0006C17.6094 21.0006 10.3906 21.0006 3.17188 21.0006C2.82406 20.9973 2.47242 21.0187 2.12898 20.9514C1.35844 20.8065 0.668281 20.2952 0.305703 19.6001C0.154766 19.3272 0.0847656 19.0209 0 18.7234V2.2789C0.107734 1.8507 0.241719 1.41758 0.517344 1.06429ZM2.29961 1.81133C2.415 1.93109 2.54078 2.03937 2.6682 2.14547C5.49008 4.59109 8.31195 7.03672 11.1333 9.48234C12.092 10.3043 13.0337 11.1459 14.0022 11.9564C14.7246 11.3581 15.4213 10.7287 16.135 10.1195C18.7611 7.84281 21.3877 5.56672 24.0144 3.29062C24.5738 2.79461 25.1562 2.32265 25.7009 1.81133C25.4554 1.72383 25.1923 1.75445 24.9375 1.75062C17.5175 1.75062 10.098 1.75117 2.67805 1.75008C2.54898 1.74679 2.42266 1.77359 2.29961 1.81133ZM1.75656 3.66906C1.7407 8.55375 1.75492 13.4384 1.74945 18.3231C1.71172 18.8066 2.13609 19.2594 2.62063 19.2495C10.0959 19.2528 17.5716 19.249 25.0469 19.2512C25.2771 19.2473 25.521 19.2747 25.7365 19.1724C26.0597 19.0269 26.2719 18.6775 26.2505 18.3231C26.2451 13.4384 26.2588 8.55375 26.2434 3.66906C22.3639 7.04164 18.4756 10.4044 14.5912 13.7715C14.2691 14.0712 13.7309 14.0717 13.4099 13.7704C9.52602 10.4027 5.63937 7.03836 1.75656 3.66906Z" fill="black"/>
</svg>
