<svg width="18" height="16" viewBox="0 0 18 16" fill="none" xmlns="http://www.w3.org/2000/svg">
<path d="M0.220679 0.138155C0.405636 -0.012748 0.677062 -0.0421274 0.892066 0.0603667C6.16133 2.49352 11.4316 4.92466 16.7015 7.35681C16.9145 7.44695 17.0624 7.64893 17.0935 7.87729V7.98145C17.0661 8.10064 17.0314 8.22417 16.9486 8.31798C16.8698 8.41246 16.7599 8.47222 16.6504 8.52397C11.4046 10.9448 6.15866 13.3656 0.912765 15.7867C0.687411 15.9012 0.390279 15.8842 0.203319 15.7049C0.0781225 15.6037 0.0243716 15.4465 0 15.2929V15.2218C0.0206991 15.0983 0.0547525 14.9738 0.133209 14.8736C1.52606 13.0167 2.91858 11.1598 4.31143 9.30253C4.65096 8.84381 5.00251 8.3931 5.33537 7.92904C4.98448 7.43927 4.6129 6.96386 4.25467 6.4791C2.88519 4.65424 1.51738 2.82837 0.147231 1.00418C0.0617635 0.899349 0.0203653 0.768477 0 0.636937V0.565158C0.0273763 0.404907 0.0858012 0.239648 0.220679 0.138155Z" fill="white"/>
</svg>
