<svg width="21" height="21" viewBox="0 0 21 21" fill="none" xmlns="http://www.w3.org/2000/svg">
<path d="M10.0627 0H11.0719C11.3708 0.0535353 11.6751 0.0603119 11.9761 0.0996163C13.2313 0.281907 14.4547 0.688504 15.5643 1.3045C17.4438 2.33793 18.9925 3.96297 19.9326 5.89091C20.7433 7.54238 21.1133 9.41069 20.9697 11.2458C20.8361 13.31 20.0553 15.3219 18.7797 16.949C17.5055 18.5856 15.7398 19.8399 13.7648 20.4783C12.2858 20.9696 10.6937 21.1105 9.14901 20.9154C6.91908 20.6226 4.78879 19.5993 3.18446 18.0211C1.7733 16.6583 0.757971 14.8903 0.297752 12.9833C-0.0370759 11.5704 -0.100788 10.0877 0.164228 8.65781C0.541079 6.47912 1.64791 4.43801 3.24885 2.9153C4.79827 1.42783 6.8147 0.428282 8.94228 0.121301C9.31235 0.0515023 9.69056 0.0535353 10.0627 0ZM9.65531 4.10121C9.32049 4.48138 9.4513 5.01199 9.40521 5.47144C8.62846 5.65441 7.91543 6.14639 7.52028 6.84574C7.15088 7.48342 7.0709 8.2607 7.21392 8.97631C7.37591 9.74884 7.92898 10.3899 8.60203 10.7775C9.41809 11.2865 10.3873 11.4437 11.242 11.8692C11.5748 12.0224 11.8466 12.3578 11.8188 12.74C11.8148 13.1189 11.5104 13.434 11.1553 13.5241C10.6368 13.6488 10.0532 13.5993 9.60041 13.3018C9.38623 13.1649 9.24864 12.925 9.25542 12.6689C9.24593 12.1708 8.82841 11.7114 8.3282 11.6754C7.788 11.6117 7.25323 12.0603 7.22408 12.6038C7.20511 13.0369 7.28847 13.4773 7.47825 13.8677C7.86934 14.6836 8.67455 15.2454 9.53602 15.4717C9.58889 15.9393 9.43707 16.4753 9.75834 16.8745C10.1176 17.3651 10.914 17.4057 11.3105 16.9388C11.6806 16.5587 11.5653 15.9942 11.5823 15.5157C12.2221 15.3362 12.8341 15.0048 13.2469 14.4715C13.7912 13.7938 13.9613 12.8607 13.7858 12.019C13.638 11.3359 13.2022 10.7369 12.6295 10.3438C11.8541 9.81254 10.9255 9.59772 10.0688 9.2406C9.81527 9.12539 9.54687 9.0129 9.3537 8.80554C9.14833 8.59682 9.15646 8.27086 9.22153 8.0059C9.31778 7.6691 9.65464 7.47597 9.9793 7.4143C10.4382 7.3323 10.9343 7.39194 11.3403 7.62912C11.5667 7.76262 11.749 7.99641 11.7422 8.27018C11.7388 8.80418 12.1984 9.2921 12.7365 9.2982C13.2456 9.3253 13.7227 8.9099 13.7722 8.40368C13.8136 7.88527 13.6787 7.35805 13.4191 6.90944C12.9988 6.18502 12.2458 5.71608 11.4569 5.48364C11.4257 5.01876 11.5572 4.47731 11.2156 4.09511C10.8381 3.61058 10.0308 3.61668 9.65531 4.10121Z" fill="white"/>
</svg>
