<svg width="11" height="9" viewBox="0 0 11 9" fill="none" xmlns="http://www.w3.org/2000/svg">
<path d="M9.34545 1.24296C9.53251 1.05268 9.79632 0.931809 10.0666 0.952491C10.4931 0.96444 10.8741 1.31833 10.9279 1.73978C10.9715 2.03393 10.8562 2.3368 10.6438 2.54178C8.68363 4.50381 6.7216 6.46354 4.76096 8.42557C4.62951 8.5538 4.50726 8.69489 4.35513 8.79968C4.05501 9.00374 3.6285 9.00099 3.3339 8.78727C3.19326 8.68432 3.07699 8.55242 2.95289 8.43108C2.0723 7.54957 1.19125 6.66852 0.310199 5.78793C0.18381 5.662 0.0758037 5.51125 0.0312226 5.3366C-0.0611568 5.00294 0.056041 4.62331 0.322149 4.40178C0.589176 4.16601 1.00006 4.11407 1.3181 4.27447C1.51573 4.37237 1.66142 4.5438 1.8163 4.69592C2.49559 5.37475 3.17212 6.0568 3.85417 6.73241C5.68567 4.90412 7.51441 3.07216 9.34545 1.24296Z" fill="#5590F5"/>
</svg>
